block  air
	name = Air

block  stone
	name = Stone
	image = /images/stone_alone.png
	solid
	textures = /images/Stone.png
	breakable 
		hardness = 1 
		health = 1000
		
block  test
	name = Test
	image = /images/test.png
	solid
	
other  test